{"help": "https://dadosabertos.aneel.gov.br/api/3/action/help_show?name=datastore_search", "success": true, "result": {"filters": {"SigAgente": "ELETROPAULO", "DscSubGrupo": "B3", "DscBaseTarifaria": "Tarifa de Aplica\u00e7\u00e3o", "DscModalidadeTarifaria": "Convencional"}, "include_total": true, "limit": 6, "records_format": "objects", "resource_id": "fcf2906c-7c32-4b9b-a637-054e7a5234f4", "sort": "DatInicioVigencia desc", "total_estimation_threshold": null, "records": [{"_id":304451,"DatGeracaoConjuntoDados":"2026-06-09","DscREH":"RESOLUÇÃO HOMOLOGATÓRIA Nº 3.477, DE 1 DE JULHO DE 2025","SigAgente":"ELETROPAULO","NumCNPJDistribuidora":"61695227000193","DatInicioVigencia":"2026-01-01","DatFimVigencia":"2026-07-03","DscBaseTarifaria":"Tarifa de Aplicação","DscSubGrupo":"B3","DscModalidadeTarifaria":"Convencional","DscClasse":"Não se aplica","DscSubClasse":"Não se aplica","DscDetalhe":"SCEE","NomPostoTarifario":"Não se aplica","DscUnidadeTerciaria":"MWh","SigAgenteAcessante":"Não se aplica","VlrTUSD":"432,44","VlrTE":"36,98"},{"_id":304442,"DatGeracaoConjuntoDados":"2026-06-09","DscREH":"RESOLUÇÃO HOMOLOGATÓRIA Nº 3.477, DE 1 DE JULHO DE 2025","SigAgente":"ELETROPAULO","NumCNPJDistribuidora":"61695227000193","DatInicioVigencia":"2026-01-01","DatFimVigencia":"2026-07-03","DscBaseTarifaria":"Tarifa de Aplicação","DscSubGrupo":"B3","DscModalidadeTarifaria":"Convencional","DscClasse":"Não se aplica","DscSubClasse":"Não se aplica","DscDetalhe":"Não se aplica","NomPostoTarifario":"Não se aplica","DscUnidadeTerciaria":"MWh","SigAgenteAcessante":"Não se aplica","VlrTUSD":"432,44","VlrTE":"292,74"},{"_id":270984,"DatGeracaoConjuntoDados":"2026-06-09","DscREH":"RESOLUÇÃO HOMOLOGATÓRIA Nº 3.477, DE 1 DE JULHO DE 2025","SigAgente":"ELETROPAULO","NumCNPJDistribuidora":"61695227000193","DatInicioVigencia":"2025-07-04","DatFimVigencia":"2025-12-31","DscBaseTarifaria":"Tarifa de Aplicação","DscSubGrupo":"B3","DscModalidadeTarifaria":"Convencional","DscClasse":"Não se aplica","DscSubClasse":"Não se aplica","DscDetalhe":"SCEE","NomPostoTarifario":"Não se aplica","DscUnidadeTerciaria":"MWh","SigAgenteAcessante":"Não se aplica","VlrTUSD":"432,44","VlrTE":"36,98"},{"_id":270974,"DatGeracaoConjuntoDados":"2026-06-09","DscREH":"RESOLUÇÃO HOMOLOGATÓRIA Nº 3.477, DE 1 DE JULHO DE 2025","SigAgente":"ELETROPAULO","NumCNPJDistribuidora":"61695227000193","DatInicioVigencia":"2025-07-04","DatFimVigencia":"2025-12-31","DscBaseTarifaria":"Tarifa de Aplicação","DscSubGrupo":"B3","DscModalidadeTarifaria":"Convencional","DscClasse":"Não se aplica","DscSubClasse":"Não se aplica","DscDetalhe":"Não se aplica","NomPostoTarifario":"Não se aplica","DscUnidadeTerciaria":"MWh","SigAgenteAcessante":"Não se aplica","VlrTUSD":"432,44","VlrTE":"292,74"},{"_id":247497,"DatGeracaoConjuntoDados":"2026-06-09","DscREH":"RESOLUÇÃO HOMOLOGATÓRIA Nº 3.339, DE 2 DE JULHO DE 2024","SigAgente":"ELETROPAULO","NumCNPJDistribuidora":"61695227000193","DatInicioVigencia":"2024-07-04","DatFimVigencia":"2025-07-03","DscBaseTarifaria":"Tarifa de Aplicação","DscSubGrupo":"B3","DscModalidadeTarifaria":"Convencional","DscClasse":"Não se aplica","DscSubClasse":"Não se aplica","DscDetalhe":"Não se aplica","NomPostoTarifario":"Não se aplica","DscUnidadeTerciaria":"MWh","SigAgenteAcessante":"Não se aplica","VlrTUSD":"373,17","VlrTE":"263,07"},{"_id":247506,"DatGeracaoConjuntoDados":"2026-06-09","DscREH":"RESOLUÇÃO HOMOLOGATÓRIA Nº 3.339, DE 2 DE JULHO DE 2024","SigAgente":"ELETROPAULO","NumCNPJDistribuidora":"61695227000193","DatInicioVigencia":"2024-07-04","DatFimVigencia":"2025-07-03","DscBaseTarifaria":"Tarifa de Aplicação","DscSubGrupo":"B3","DscModalidadeTarifaria":"Convencional","DscClasse":"Não se aplica","DscSubClasse":"Não se aplica","DscDetalhe":"SCEE","NomPostoTarifario":"Não se aplica","DscUnidadeTerciaria":"MWh","SigAgenteAcessante":"Não se aplica","VlrTUSD":"373,17","VlrTE":"45,24"}], "fields": [{"id": "_id", "type": "int"}, {"id": "DatGeracaoConjuntoDados", "type": "text"}, {"id": "DscREH", "type": "text"}, {"id": "SigAgente", "type": "text"}, {"id": "NumCNPJDistribuidora", "type": "text"}, {"id": "DatInicioVigencia", "type": "text"}, {"id": "DatFimVigencia", "type": "text"}, {"id": "DscBaseTarifaria", "type": "text"}, {"id": "DscSubGrupo", "type": "text"}, {"id": "DscModalidadeTarifaria", "type": "text"}, {"id": "DscClasse", "type": "text"}, {"id": "DscSubClasse", "type": "text"}, {"id": "DscDetalhe", "type": "text"}, {"id": "NomPostoTarifario", "type": "text"}, {"id": "DscUnidadeTerciaria", "type": "text"}, {"id": "SigAgenteAcessante", "type": "text"}, {"id": "VlrTUSD", "type": "text"}, {"id": "VlrTE", "type": "text"}], "_links": {"start": "/api/3/action/datastore_search?resource_id=fcf2906c-7c32-4b9b-a637-054e7a5234f4&filters=%7B%22SigAgente%22%3A%22ELETROPAULO%22%2C%22DscSubGrupo%22%3A%22B3%22%2C%22DscBaseTarifaria%22%3A%22Tarifa+de+Aplica%C3%A7%C3%A3o%22%2C%22DscModalidadeTarifaria%22%3A%22Convencional%22%7D&sort=DatInicioVigencia+desc&limit=6", "next": "/api/3/action/datastore_search?resource_id=fcf2906c-7c32-4b9b-a637-054e7a5234f4&filters=%7B%22SigAgente%22%3A%22ELETROPAULO%22%2C%22DscSubGrupo%22%3A%22B3%22%2C%22DscBaseTarifaria%22%3A%22Tarifa+de+Aplica%C3%A7%C3%A3o%22%2C%22DscModalidadeTarifaria%22%3A%22Convencional%22%7D&sort=DatInicioVigencia+desc&limit=6&offset=6"}, "total": 26, "total_was_estimated": false}}