{"help": "https://dadosabertos.aneel.gov.br/api/3/action/help_show?name=datastore_search", "success": true, "result": {"include_total": true, "limit": 2, "records_format": "objects", "resource_id": "fcf2906c-7c32-4b9b-a637-054e7a5234f4", "total_estimation_threshold": null, "records": [{"_id":1,"DatGeracaoConjuntoDados":"2026-06-09","DscREH":"RESOLUÇÃO HOMOLOGATÓRIA Nº 0.937, DE 2 DE FEVEREIRO DE 2010","SigAgente":"CPFL JAGUARI","NumCNPJDistribuidora":"53859112000169","DatInicioVigencia":"2010-02-03","DatFimVigencia":"2011-02-02","DscBaseTarifaria":"Base Econômica","DscSubGrupo":"A2","DscModalidadeTarifaria":"Azul","DscClasse":"Não se aplica","DscSubClasse":"Não se aplica","DscDetalhe":"APE","NomPostoTarifario":"Fora ponta","DscUnidadeTerciaria":"kW","SigAgenteAcessante":"Não se aplica","VlrTUSD":"1,85","VlrTE":",00"},{"_id":2,"DatGeracaoConjuntoDados":"2026-06-09","DscREH":"RESOLUÇÃO HOMOLOGATÓRIA Nº 0.937, DE 2 DE FEVEREIRO DE 2010","SigAgente":"CPFL JAGUARI","NumCNPJDistribuidora":"53859112000169","DatInicioVigencia":"2010-02-03","DatFimVigencia":"2011-02-02","DscBaseTarifaria":"Tarifa de Aplicação","DscSubGrupo":"A2","DscModalidadeTarifaria":"Azul","DscClasse":"Não se aplica","DscSubClasse":"Não se aplica","DscDetalhe":"APE","NomPostoTarifario":"Fora ponta","DscUnidadeTerciaria":"kW","SigAgenteAcessante":"Não se aplica","VlrTUSD":"1,85","VlrTE":",00"}], "fields": [{"id": "_id", "type": "int"}, {"id": "DatGeracaoConjuntoDados", "type": "text"}, {"id": "DscREH", "type": "text"}, {"id": "SigAgente", "type": "text"}, {"id": "NumCNPJDistribuidora", "type": "text"}, {"id": "DatInicioVigencia", "type": "text"}, {"id": "DatFimVigencia", "type": "text"}, {"id": "DscBaseTarifaria", "type": "text"}, {"id": "DscSubGrupo", "type": "text"}, {"id": "DscModalidadeTarifaria", "type": "text"}, {"id": "DscClasse", "type": "text"}, {"id": "DscSubClasse", "type": "text"}, {"id": "DscDetalhe", "type": "text"}, {"id": "NomPostoTarifario", "type": "text"}, {"id": "DscUnidadeTerciaria", "type": "text"}, {"id": "SigAgenteAcessante", "type": "text"}, {"id": "VlrTUSD", "type": "text"}, {"id": "VlrTE", "type": "text"}], "_links": {"start": "/api/3/action/datastore_search?resource_id=fcf2906c-7c32-4b9b-a637-054e7a5234f4&limit=2", "next": "/api/3/action/datastore_search?resource_id=fcf2906c-7c32-4b9b-a637-054e7a5234f4&limit=2&offset=2"}, "total": 318339, "total_was_estimated": false}}